{
  "project_info": {
    "project_number": "165721218042",
    "firebase_url": "https://simplest-shopping-list.firebaseio.com",
    "project_id": "simplest-shopping-list",
    "storage_bucket": "simplest-shopping-list.appspot.com"
  },
  "client": [
    {
      "client_info": {
        "mobilesdk_app_id": "1:165721218042:android:ee3f1e739dd0bf13",
        "android_client_info": {
          "package_name": "com.gadgetjudge.simplestshoppinglist"
        }
      },
      "oauth_client": [
        {
          "client_id": "165721218042-d1nbk7breina0djjerp2aeq7qoe81hon.apps.googleusercontent.com",
          "client_type": 3
        }
      ],
      "api_key": [
        {
          "current_key": "AIzaSyAeHU9tf9X_jsUjLYbZItK0TcPxRKOgPA4"
        }
      ],
      "services": {
        "analytics_service": {
          "status": 1
        },
        "appinvite_service": {
          "status": 1,
          "other_platform_oauth_client": []
        },
        "ads_service": {
          "status": 2
        }
      }
    },
    {
      "client_info": {
        "mobilesdk_app_id": "1:165721218042:android:aa5fa77522d586db",
        "android_client_info": {
          "package_name": "com.gadgetjudge.simplestshoppinglistpro"
        }
      },
      "oauth_client": [
        {
          "client_id": "165721218042-d1nbk7breina0djjerp2aeq7qoe81hon.apps.googleusercontent.com",
          "client_type": 3
        }
      ],
      "api_key": [
        {
          "current_key": "AIzaSyAeHU9tf9X_jsUjLYbZItK0TcPxRKOgPA4"
        }
      ],
      "services": {
        "analytics_service": {
          "status": 1
        },
        "appinvite_service": {
          "status": 1,
          "other_platform_oauth_client": []
        },
        "ads_service": {
          "status": 2
        }
      }
    }
  ],
  "configuration_version": "1"
}